…
5. Pivot the data back so that the dates are data and not column names.

```r
sydneybeaches_wide %>% 
  pivot_longer(-site,
               names_to = "date",
               values_to = "enterococci_cfu_100ml")
```

```
## # A tibble: 3,784 × 3
##    site           date       enterococci_cfu_100ml
##    <chr>          <chr>                      <dbl>
##  1 Clovelly Beach 02/01/2013                    19
##  2 Clovelly Beach 06/01/2013                     3
##  3 Clovelly Beach 12/01/2013                     2
##  4 Clovelly Beach 18/01/2013                    13
##  5 Clovelly Beach 30/01/2013                     8
##  6 Clovelly Beach 05/02/2013                     7
##  7 Clovelly Beach 11/02/2013                    11
##  8 Clovelly Beach 23/02/2013                    97
##  9 Clovelly Beach 07/03/2013                     3
## 10 Clovelly Beach 25/03/2013                     0
## # ℹ 3,774 more rows
```

6. We haven't dealt much with dates yet, but separate the date into columns day, month, and year. Do this on the `sydneybeaches_long` data.

```r
sydneybeaches_long %>% 
  separate(date, into = c("month", "day", "year"), sep = "/")
```

```
## # A tibble: 3,690 × 5
##    site           month day   year  enterococci_cfu_100ml
##    <chr>          <chr> <chr> <chr>                 <dbl>
##  1 Clovelly Beach 02    01    2013                     19
##  2 Clovelly Beach 06    01    2013                      3
##  3 Clovelly Beach 12    01    2013                      2
##  4 Clovelly Beach 18    01    2013                     13
##  5 Clovelly Beach 30    01    2013                      8
##  6 Clovelly Beach 05    02    2013                      7
##  7 Clovelly Beach 11    02    2013                     11
##  8 Clovelly Beach 23    02    2013                     97
##  9 Clovelly Beach 07    03    2013                      3
## 10 Clovelly Beach 25    03    2013                      0
## # ℹ 3,680 more rows
```
…
```
## Warning: Expected 4 pieces. Missing pieces filled with `NA` in 3784 rows [1, 2, 3, 4, 5,
## 6, 7, 8, 9, 10, 11, 12, 13, 14, 15, 16, 17, 18, 19, 20, ...].
```

```
## # A tibble: 638 × 6
##    site                    day   month year  `/`   enterococci_cfu_100ml
##    <chr>                   <chr> <chr> <chr> <chr>                 <dbl>
##  1 Little Bay Beach        30    06    2013  <NA>                   4900
##  2 Malabar Beach           30    06    2013  <NA>                   2500
##  3 Maroubra Beach          31    12    2013  <NA>                   2100
##  4 Malabar Beach           31    12    2013  <NA>                   1500
##  5 South Maroubra Beach    31    12    2013  <NA>                   1200
##  6 Bronte Beach            23    02    2013  <NA>                    780
##  7 Tamarama Beach          12    06    2013  <NA>                    690
##  8 Gordons Bay (East)      12    06    2013  <NA>                    660
##  9 Coogee Beach            23    02    2013  <NA>                    630
## 10 South Maroubra Rockpool 05    02    2013  <NA>                    630
## # ℹ 628 more rows
```
…
