…
Problem 4. (4 points) Which park has the largest number of wolf packs?

```r
wolves %>%
  group_by(park) %>% 
  count(packsize_aug, sort = T)
```

```
## # A tibble: 98 × 3
## # Groups:   park [5]
##    park  packsize_aug     n
##    <chr>        <dbl> <int>
##  1 VNP             NA    38
##  2 DENA             2    37
##  3 DENA             6    37
##  4 DENA             8    36
##  5 DENA             7    30
##  6 DENA             3    28
##  7 DENA             5    26
##  8 DENA            10    22
##  9 DENA             9    19
## 10 YUCH             2    19
## # ℹ 88 more rows
```


Problem 5. (4 points) Which park has the highest total number of human-caused mortalities `mort_all`?

```r
wolves %>% 
  group_by(park) %>% 
  count(mort_all)
```

```
## # A tibble: 28 × 3
## # Groups:   park [5]
##    park  mort_all     n
##    <chr>    <int> <int>
##  1 DENA         0   287
##  2 DENA         1    44
##  3 DENA         2     8
##  4 DENA         4     1
##  5 GNTP         0    53
##  6 GNTP         1    15
##  7 GNTP         2     6
##  8 GNTP         3     1
##  9 GNTP         4     2
## 10 VNP          0    39
## # ℹ 18 more rows
```
…
Problem 9. (5 points) Among the YNP wolf packs, which one has had the highest overall persistence `persisty1` for the years represented in the data? Look this pack up online and tell me what is unique about its behavior- specifically, what prey animals does this pack specialize on?  


```r
ynp %>% 
  group_by(pack) %>% 
  count(pack, persisty1) %>% 
  arrange(desc(persisty1))
```

```
## # A tibble: 67 × 3
## # Groups:   pack [46]
##    pack        persisty1     n
##    <chr>           <int> <int>
##  1 682Mgroup           1     1
##  2 8mile               1     9
##  3 agate               1    10
##  4 bechler             1     2
##  5 biscuit             1     1
##  6 blacktail           1     5
##  7 buffalofork         1     1
##  8 canyon              1     9
##  9 cinnabar            1     1
## 10 cottonwood          1     1
## # ℹ 57 more rows
```


Problem 10. (3 points) Perform one analysis or exploration of your choice on the `wolves` data. Your answer needs to include at least two lines of code and not be a summary function.  

```r
wolves %>% 
  group_by(pack) %>% 
  summarize(mean_mort_all=mean(mort_all),
            total=n()) %>% 
  arrange(desc(mean_mort_all))
```

```
## # A tibble: 184 × 3
##    pack            mean_mort_all total
##    <chr>                   <dbl> <int>
##  1 Sheep Bluff              4        3
##  2 Webber Creek 2           4        1
##  3 Yukon Fork               3        4
##  4 Lost Creek               2.86     7
##  5 70 Mile                  2.46    13
##  6 642Fgroup                2        1
##  7 Birch Creek N            2        1
##  8 Fourth of July           2        1
##  9 cottonwood               2        2
## 10 Copper Mountain          1.75     4
## # ℹ 174 more rows
```
