…
7. [Dipodomys merriami](https://en.wikipedia.org/wiki/Merriam's_kangaroo_rat) is the most frequently sampled animal in the study. How have the number of observations of this species changed over the years included in the study?

```r
deserts %>% 
  filter(species=="merriami")
```

```
## # A tibble: 10,596 × 13
##    record_id month   day  year plot_id species_id sex   hindfoot_length weight
##        <dbl> <dbl> <dbl> <dbl>   <dbl> <chr>      <chr>           <dbl>  <dbl>
##  1         3     7    16  1977       2 DM         F                  37     NA
##  2         4     7    16  1977       7 DM         M                  36     NA
##  3         5     7    16  1977       3 DM         M                  35     NA
##  4         8     7    16  1977       1 DM         M                  37     NA
##  5         9     7    16  1977       1 DM         F                  34     NA
##  6        12     7    16  1977       7 DM         M                  38     NA
##  7        13     7    16  1977       3 DM         M                  35     NA
##  8        14     7    16  1977       8 DM         <NA>               NA     NA
##  9        15     7    16  1977       6 DM         F                  36     NA
## 10        16     7    16  1977       4 DM         F                  36     NA
## # ℹ 10,586 more rows
## # ℹ 4 more variables: genus <chr>, species <chr>, taxa <chr>, plot_type <chr>
```
…
9. Which two species have, on average, the highest weight? Once you have identified them, make a new column that is a ratio of `weight` to `hindfoot_length`. Make a plot that shows the range of this new ratio and fill by sex.

```r
deserts %>% 
  group_by(species) %>%
  filter(weight != "NA") %>% 
  summarise(max_weight=max(weight)) %>% 
  arrange(desc(max_weight))
```

```
## # A tibble: 22 × 2
##    species      max_weight
##    <chr>             <dbl>
##  1 albigula            280
##  2 fulviventer         199
##  3 spectabilis         190
##  4 hispidus            140
##  5 spilosoma           130
##  6 ochrognathus        105
##  7 ordii                76
##  8 penicillatus         74
##  9 merriami             66
## 10 leucogaster          56
## # ℹ 12 more rows
```


```r
deserts %>% 
  filter(weight != "NA") %>% 
  mutate(weight_to_hindfoot_length = weight/hindfoot_length) %>% 
  select(species, weight, hindfoot_length, weight_to_hindfoot_length) %>% 
  arrange(desc(weight_to_hindfoot_length))
```

```
## # A tibble: 32,283 × 4
##    species  weight hindfoot_length weight_to_hindfoot_length
##    <chr>     <dbl>           <dbl>                     <dbl>
##  1 baileyi      30               2                     15   
##  2 albigula    278              32                      8.69
##  3 albigula    280              33                      8.48
##  4 albigula    270              32                      8.44
##  5 albigula    274              33                      8.30
##  6 albigula    253              32                      7.91
##  7 albigula    260              33                      7.88
##  8 albigula    252              32                      7.88
##  9 albigula    259              33                      7.85
## 10 albigula    259              33                      7.85
## # ℹ 32,273 more rows
```
…
