…
```
##  [1] "AL"  "AR"  "BO"  "BR"  "CR"  "DY"  "FD"  "JN"  "LC"  "LJ"  "LR"  "LSG"
## [13] "MN"  "RD"  "UB"  "WS"
```

Now we can pull out any state of interest.  

```r
filter(fish, lakeid == "LJ")
```

```
## # A tibble: 181 × 6
##    lakeid fish_id annnumber length radii_length_mm scalelength
##    <fct>    <dbl> <chr>      <dbl>           <dbl>       <dbl>
##  1 LJ         239 EDGE         245            4.10        4.10
##  2 LJ         239 8            245            3.87        4.10
##  3 LJ         239 7            245            3.63        4.10
##  4 LJ         239 6            245            3.42        4.10
##  5 LJ         239 5            245            3.19        4.10
##  6 LJ         239 4            245            2.84        4.10
##  7 LJ         239 3            245            2.50        4.10
##  8 LJ         239 2            245            2.12        4.10
##  9 LJ         239 1            245            1.33        4.10
## 10 LJ         240 EDGE         249            4.40        4.40
## # ℹ 171 more rows
```

## Using `filter()` on multiple conditions
You can also use `filter()` to extract data based on multiple conditions. Below we extract only the fish that have lakeid "AL" and length >350.

```r
filter(fish, lakeid == "AL" & length > 350) #can filter out the specific lake and length, &  will only show data from AL but also with that lake that are greater than 350 
```

```
## # A tibble: 314 × 6
##    lakeid fish_id annnumber length radii_length_mm scalelength
##    <fct>    <dbl> <chr>      <dbl>           <dbl>       <dbl>
##  1 AL         307 EDGE         353            7.55        7.55
##  2 AL         307 13           353            7.28        7.55
##  3 AL         307 12           353            6.98        7.55
##  4 AL         307 11           353            6.73        7.55
##  5 AL         307 10           353            6.48        7.55
##  6 AL         307 9            353            6.22        7.55
##  7 AL         307 8            353            5.92        7.55
##  8 AL         307 7            353            5.44        7.55
##  9 AL         307 6            353            5.06        7.55
## 10 AL         307 5            353            4.37        7.55
## # ℹ 304 more rows
```

Notice that the `|` operator generates a different result.

```r
filter(fish, lakeid == "AL" | length > 350) #the vertical line stands for "or". So this function that will show not only the data from AL but also data that includes fishes that greater than 350  
```

```
## # A tibble: 948 × 6
##    lakeid fish_id annnumber length radii_length_mm scalelength
##    <fct>    <dbl> <chr>      <dbl>           <dbl>       <dbl>
##  1 AL         299 EDGE         167            2.70        2.70
##  2 AL         299 2            167            2.04        2.70
##  3 AL         299 1            167            1.31        2.70
##  4 AL         300 EDGE         175            3.02        3.02
##  5 AL         300 3            175            2.67        3.02
##  6 AL         300 2            175            2.14        3.02
##  7 AL         300 1            175            1.23        3.02
##  8 AL         301 EDGE         194            3.34        3.34
##  9 AL         301 3            194            2.97        3.34
## 10 AL         301 2            194            2.29        3.34
## # ℹ 938 more rows
```

Rules:  
+ `filter(condition1, condition2)` will return rows where both conditions are met.  
+ `filter(condition1, !condition2)` will return all rows where condition one is true but condition 2 is not.  
+ `filter(condition1 | condition2)` will return rows where condition 1 or condition 2 is met.  
+ `filter(xor(condition1, condition2)` will return all rows where only one of the conditions is met, and not when both conditions are met.  

In this case, we filter out the fish with a length over 400 and a scale length over 11 or a radii length over 8.

```r
filter(fish, length > 400, (scalelength > 11 | radii_length_mm > 8))
```

```
## # A tibble: 23 × 6
##    lakeid fish_id annnumber length radii_length_mm scalelength
##    <fct>    <dbl> <chr>      <dbl>           <dbl>       <dbl>
##  1 AL         324 EDGE         406            8.21        8.21
##  2 AL         327 EDGE         413            8.33        8.33
##  3 AL         327 15           413            8.11        8.33
##  4 AL         328 EDGE         420            8.71        8.71
##  5 AL         328 16           420            8.41        8.71
##  6 AL         328 15           420            8.14        8.71
##  7 WS         180 EDGE         403           11.0        11.0 
##  8 WS         180 16           403           10.6        11.0 
##  9 WS         180 15           403           10.3        11.0 
## 10 WS         180 14           403            9.93       11.0 
## # ℹ 13 more rows
```
…
