…
**2. The president of UC has asked you to build a shiny app that shows admissions by ethnicity across all UC campuses. Your app should allow users to explore year, campus, and admit category as interactive variables. Use shiny dashboard and try to incorporate the aesthetics you have learned in ggplot to make the app neat and clean.**  

```r
UC_admit %>% 
  filter(ethnicity != "Unknown" & ethnicity != "All")
```

```
## # A tibble: 1,620 × 6
##    campus academic_yr category   ethnicity        perc_fr filtered_count_fr
##    <chr>        <dbl> <chr>      <chr>            <chr>               <dbl>
##  1 Davis         2019 Applicants International    21.16%              16522
##  2 Davis         2019 Applicants White            18.39%              14360
##  3 Davis         2019 Applicants Asian            30.76%              24024
##  4 Davis         2019 Applicants Chicano/Latino   22.44%              17526
##  5 Davis         2019 Applicants American Indian  0.35%                 277
##  6 Davis         2019 Applicants African American 4.39%                3425
##  7 Davis         2018 Applicants International    19.87%              15507
##  8 Davis         2018 Applicants White            18.96%              14797
##  9 Davis         2018 Applicants Asian            30.63%              23902
## 10 Davis         2018 Applicants Chicano/Latino   22.74%              17741
## # ℹ 1,610 more rows
```
…
