…
9. When is the best month to have surgery? Make a chart that shows the 30-day mortality and complications for the patients by month. `mort30` is the variable that shows whether or not a patient survived 30 days post-operation.

```r
surgery %>% 
  select(month, mort30, complication)
```

```
## # A tibble: 32,001 × 3
##    month mort30 complication
##    <chr> <chr>  <chr>       
##  1 Nov   No     No          
##  2 Sep   No     No          
##  3 Aug   No     No          
##  4 Jun   No     No          
##  5 Aug   No     No          
##  6 Dec   No     No          
##  7 Apr   No     No          
##  8 Sep   No     Yes         
##  9 Apr   No     No          
## 10 Sep   No     No          
## # ℹ 31,991 more rows
```
…
