…
1. Who are the publishers of the superheros? Show the proportion of superheros from each publisher. Which publisher has the highest number of superheros?  


```r
superhero_info %>% 
  select(publisher)
```

```
## # A tibble: 734 × 1
##    publisher        
##    <chr>            
##  1 Marvel Comics    
##  2 Dark Horse Comics
##  3 DC Comics        
##  4 Marvel Comics    
##  5 Marvel Comics    
##  6 Marvel Comics    
##  7 NBC - Heroes     
##  8 DC Comics        
##  9 Marvel Comics    
## 10 Marvel Comics    
## # ℹ 724 more rows
```
…
2. Notice that we have some neutral superheros! Who are they? List their names below.  


```r
superhero_info %>% 
  select(name, alignment) %>% 
  filter(alignment == "neutral")
```

```
## # A tibble: 24 × 2
##    name         alignment
##    <chr>        <chr>    
##  1 Bizarro      neutral  
##  2 Black Flash  neutral  
##  3 Captain Cold neutral  
##  4 Copycat      neutral  
##  5 Deadpool     neutral  
##  6 Deathstroke  neutral  
##  7 Etrigan      neutral  
##  8 Galactus     neutral  
##  9 Gladiator    neutral  
## 10 Indigo       neutral  
## # ℹ 14 more rows
```

## `superhero_info`
3. Let's say we are only interested in the variables name, alignment, and "race". How would you isolate these variables from `superhero_info`?


```r
superhero_info %>% 
  select(name, alignment, race)
```

```
## # A tibble: 734 × 3
##    name          alignment race             
##    <chr>         <chr>     <chr>            
##  1 A-Bomb        good      Human            
##  2 Abe Sapien    good      Icthyo Sapien    
##  3 Abin Sur      good      Ungaran          
##  4 Abomination   bad       Human / Radiation
##  5 Abraxas       bad       Cosmic Entity    
##  6 Absorbing Man bad       Human            
##  7 Adam Monroe   good      <NA>             
##  8 Adam Strange  good      Human            
##  9 Agent 13      good      <NA>             
## 10 Agent Bob     good      Human            
## # ℹ 724 more rows
```

## Not Human
4. List all of the superheros that are not human.


```r
superhero_info %>% 
  select(name, alignment, race) %>% 
  filter(race != "Human" & race != "Human / Radiation")
```

```
## # A tibble: 211 × 3
##    name         alignment race           
##    <chr>        <chr>     <chr>          
##  1 Abe Sapien   good      Icthyo Sapien  
##  2 Abin Sur     good      Ungaran        
##  3 Abraxas      bad       Cosmic Entity  
##  4 Ajax         bad       Cyborg         
##  5 Alien        bad       Xenomorph XX121
##  6 Amazo        bad       Android        
##  7 Angel        good      Vampire        
##  8 Angel Dust   good      Mutant         
##  9 Anti-Monitor bad       God / Eternal  
## 10 Anti-Venom   <NA>      Symbiote       
## # ℹ 201 more rows
```
…
8. Among the bad guys, who are the male humans over 200 inches in height?

```r
superhero_info %>% 
  select(name, height, alignment) %>% 
  filter(alignment=="bad") %>% 
  filter(height>200)
```

```
## # A tibble: 25 × 3
##    name           height alignment
##    <chr>           <dbl> <chr>    
##  1 Abomination       203 bad      
##  2 Alien             244 bad      
##  3 Amazo             257 bad      
##  4 Apocalypse        213 bad      
##  5 Bane              203 bad      
##  6 Bloodaxe          218 bad      
##  7 Darkseid          267 bad      
##  8 Doctor Doom       201 bad      
##  9 Doctor Doom II    201 bad      
## 10 Doomsday          244 bad      
## # ℹ 15 more rows
```
…
11. Let's make a new variable that is the ratio of height to weight. Call this variable `height_weight_ratio`.    

```r
superhero_info %>% 
  mutate(height_weight_ratio = height/weight) %>% 
  select(name, height, weight, height_weight_ratio)
```

```
## # A tibble: 734 × 4
##    name          height weight height_weight_ratio
##    <chr>          <dbl>  <dbl>               <dbl>
##  1 A-Bomb           203    441               0.460
##  2 Abe Sapien       191     65               2.94 
##  3 Abin Sur         185     90               2.06 
##  4 Abomination      203    441               0.460
##  5 Abraxas           NA     NA              NA    
##  6 Absorbing Man    193    122               1.58 
##  7 Adam Monroe       NA     NA              NA    
##  8 Adam Strange     185     88               2.10 
##  9 Agent 13         173     61               2.84 
## 10 Agent Bob        178     81               2.20 
## # ℹ 724 more rows
```

12. Who has the highest height to weight ratio?  

```r
superhero_info %>% 
  mutate(height_weight_ratio = height/weight) %>% 
  select(name, height, weight, height_weight_ratio) %>% 
  arrange(desc(height_weight_ratio))
```

```
## # A tibble: 734 × 4
##    name            height weight height_weight_ratio
##    <chr>            <dbl>  <dbl>               <dbl>
##  1 Groot              701      4              175.  
##  2 Galactus           876     16               54.8 
##  3 Fin Fang Foom      975     18               54.2 
##  4 Longshot           188     36                5.22
##  5 Jack-Jack           71     14                5.07
##  6 Rocket Raccoon     122     25                4.88
##  7 Dash               122     27                4.52
##  8 Howard the Duck     79     18                4.39
##  9 Swarm              196     47                4.17
## 10 Yoda                66     17                3.88
## # ℹ 724 more rows
```
…
13. How many superheros have a combination of agility, stealth, super_strength, stamina?

```r
superhero_powers %>% 
  filter(agility & stealth & super_strength & stamina)
```

```
## # A tibble: 40 × 168
##    hero_names  agility accelerated_healing lantern_power_ring
##    <chr>       <lgl>   <lgl>               <lgl>             
##  1 Alex Mercer TRUE    TRUE                FALSE             
##  2 Angel       TRUE    TRUE                FALSE             
##  3 Ant-Man II  TRUE    FALSE               FALSE             
##  4 Aquaman     TRUE    TRUE                FALSE             
##  5 Batman      TRUE    FALSE               FALSE             
##  6 Black Flash TRUE    FALSE               FALSE             
##  7 Black Manta TRUE    FALSE               FALSE             
##  8 Brundlefly  TRUE    FALSE               FALSE             
##  9 Buffy       TRUE    TRUE                FALSE             
## 10 Cable       TRUE    TRUE                FALSE             
## # ℹ 30 more rows
## # ℹ 164 more variables: dimensional_awareness <lgl>, cold_resistance <lgl>,
## #   durability <lgl>, stealth <lgl>, energy_absorption <lgl>, flight <lgl>,
## #   danger_sense <lgl>, underwater_breathing <lgl>, marksmanship <lgl>,
## #   weapons_master <lgl>, power_augmentation <lgl>, animal_attributes <lgl>,
## #   longevity <lgl>, intelligence <lgl>, super_strength <lgl>,
## #   cryokinesis <lgl>, telepathy <lgl>, energy_armor <lgl>, …
```
…
